<svg xmlns="http://www.w3.org/2000/svg" width="27.525" height="19.35" viewBox="0 0 27.525 19.35">
  <path id="back" d="M8.978,4.967A.976.976,0,0,1,10.365,6.34L3.332,13.373H26.54a.977.977,0,0,1,.985.971.989.989,0,0,1-.985.985H3.332l7.033,7.02a1,1,0,0,1,0,1.387.972.972,0,0,1-1.387,0l-8.7-8.7a.979.979,0,0,1,0-1.373Z" transform="translate(0.001 -4.676)" fill="#0c5c97"/>
</svg>
