<svg xmlns="http://www.w3.org/2000/svg" width="20.792" height="21.311" viewBox="0 0 20.792 21.311">
  <path id="filter_4_" data-name="filter (4)" d="M20.391,0h-19A.893.893,0,0,0,.6.485a.905.905,0,0,0,.07.942l6.961,9.806.007.01a1.989,1.989,0,0,1,.39,1.18v7.995a.889.889,0,0,0,.889.894.915.915,0,0,0,.351-.07l3.911-1.492a.847.847,0,0,0,.583-.836V12.422a1.989,1.989,0,0,1,.39-1.18l.007-.01,6.961-9.806a.9.9,0,0,0,.07-.942.893.893,0,0,0-.8-.485ZM13.277,10.6a3.08,3.08,0,0,0-.6,1.821v6.36l-3.57,1.361V12.422a3.078,3.078,0,0,0-.6-1.821L1.748,1.082H20.035Zm0,0" transform="translate(-0.496 0)" fill="#0c5b97"/>
</svg>
