<svg id="Group_54860" data-name="Group 54860" xmlns="http://www.w3.org/2000/svg" width="31.798" height="26.906" viewBox="0 0 31.798 26.906">
  <path id="Path_201349" data-name="Path 201349" d="M34.274,54.849l-1.706-13.47A.885.885,0,0,0,32,40.668l-2.877-1.049c-.268.508-.535,1.049-.8,1.557l2.576.948,1.472,11.609-6.123-2L25.809,44.9a2.421,2.421,0,0,1-1,.2,2.353,2.353,0,0,1-.7-.1l.435,6.769-5.353,1.963V42.055l2.141-.88-.8-1.557-2.141.914-5.889-2.471a1.025,1.025,0,0,0-.636-.034l-7.093,2.64a.9.9,0,0,0-.569.711L2.488,54.849a.865.865,0,0,0,.3.778.876.876,0,0,0,.8.169l7.662-2.5,6.826,2.5a.82.82,0,0,0,.569,0l6.826-2.5,7.662,2.5a.729.729,0,0,0,.268.034.755.755,0,0,0,.535-.2A.89.89,0,0,0,34.274,54.849Zm-23.79-3.114-6.123,2L5.833,42.123,11.22,40.16Zm7.026,2-5.353-1.963.736-11.642,4.617,1.929Z" transform="translate(-2.481 -28.941)" fill="#0c5b97"/>
  <path id="Path_201350" data-name="Path 201350" d="M58.956,23.983a.739.739,0,0,0,1.32,0s3.08-6.024,3.791-7.446a4.987,4.987,0,0,0-6.7-6.7,5.025,5.025,0,0,0-2.2,6.7C56.384,18.907,58.956,23.983,58.956,23.983ZM59.633,12a2.369,2.369,0,1,1-2.369,2.369A2.355,2.355,0,0,1,59.633,12Z" transform="translate(-37.35 -9.292)" fill="#0c5b97"/>
</svg>
