<svg xmlns="http://www.w3.org/2000/svg" width="6" height="7" viewBox="0 0 6 7">
  <path id="Path_201353" data-name="Path 201353" d="M14,5.847A2.944,2.944,0,0,0,11,3,2.92,2.92,0,0,0,8,5.847v.119H8a5.391,5.391,0,0,0,.1.605A6.677,6.677,0,0,0,11,10a6.677,6.677,0,0,0,2.9-3.429,4.99,4.99,0,0,0,.1-.605h0ZM11,7.034A1.223,1.223,0,0,1,9.75,5.847a1.252,1.252,0,0,1,2.5,0A1.223,1.223,0,0,1,11,7.034Z" transform="translate(-8 -3)" fill="#0c5b97"/>
</svg>
