{
  "postcode": "SW7 3SS",
  "latitude": 51.493770599365234,
  "longitude": -0.17535926401615143,
  "addresses": [
    {
      "formatted_address": [
        "A H Christie Legal Limited Liability Partnership",
        "28 Old Brompton Road",
        "",
        "London",
        ""
      ],
      "thoroughfare": "Old Brompton Road",
      "building_name": "",
      "sub_building_name": "A H Christie Legal Limited Liability Partnership",
      "sub_building_number": "",
      "building_number": "28",
      "line_1": "A H Christie Legal Limited Liability Partnership",
      "line_2": "28 Old Brompton Road",
      "line_3": "",
      "line_4": "",
      "locality": "",
      "town_or_city": "London",
      "county": "",
      "district": "Kensington And Chelsea",
      "country": "England"
    },
    {
      "formatted_address": [
        "Apex Productions Ltd",
        "28 Old Brompton Road",
        "",
        "London",
        ""
      ],
      "thoroughfare": "Old Brompton Road",
      "building_name": "",
      "sub_building_name": "Apex Productions Ltd",
      "sub_building_number": "",
      "building_number": "28",
      "line_1": "Apex Productions Ltd",
      "line_2": "28 Old Brompton Road",
      "line_3": "",
      "line_4": "",
      "locality": "",
      "town_or_city": "London",
      "county": "",
      "district": "Kensington And Chelsea",
      "country": "England"
    },
    {
      "formatted_address": [
        "Art Projects Management Ltd",
        "28 Old Brompton Road",
        "",
        "London",
        ""
      ],
      "thoroughfare": "Old Brompton Road",
      "building_name": "",
      "sub_building_name": "Art Projects Management Ltd",
      "sub_building_number": "",
      "building_number": "28",
      "line_1": "Art Projects Management Ltd",
      "line_2": "28 Old Brompton Road",
      "line_3": "",
      "line_4": "",
      "locality": "",
      "town_or_city": "London",
      "county": "",
      "district": "Kensington And Chelsea",
      "country": "England"
    },
    {
      "formatted_address": [
        "Elequra Ltd",
        "28 Old Brompton Road",
        "",
        "London",
        ""
      ],
      "thoroughfare": "Old Brompton Road",
      "building_name": "",
      "sub_building_name": "Elequra Ltd",
      "sub_building_number": "",
      "building_number": "28",
      "line_1": "Elequra Ltd",
      "line_2": "28 Old Brompton Road",
      "line_3": "",
      "line_4": "",
      "locality": "",
      "town_or_city": "London",
      "county": "",
      "district": "Kensington And Chelsea",
      "country": "England"
    },
    {
      "formatted_address": [
        "Flo Cosmetics Ltd",
        "28 Old Brompton Road",
        "",
        "London",
        ""
      ],
      "thoroughfare": "Old Brompton Road",
      "building_name": "",
      "sub_building_name": "Flo Cosmetics Ltd",
      "sub_building_number": "",
      "building_number": "28",
      "line_1": "Flo Cosmetics Ltd",
      "line_2": "28 Old Brompton Road",
      "line_3": "",
      "line_4": "",
      "locality": "",
      "town_or_city": "London",
      "county": "",
      "district": "Kensington And Chelsea",
      "country": "England"
    },
    {
      "formatted_address": [
        "Galeena Ltd",
        "28 Old Brompton Road",
        "",
        "London",
        ""
      ],
      "thoroughfare": "Old Brompton Road",
      "building_name": "",
      "sub_building_name": "Galeena Ltd",
      "sub_building_number": "",
      "building_number": "28",
      "line_1": "Galeena Ltd",
      "line_2": "28 Old Brompton Road",
      "line_3": "",
      "line_4": "",
      "locality": "",
      "town_or_city": "London",
      "county": "",
      "district": "Kensington And Chelsea",
      "country": "England"
    },
    {
      "formatted_address": [
        "Garvian Ltd",
        "28 Old Brompton Road",
        "",
        "London",
        ""
      ],
      "thoroughfare": "Old Brompton Road",
      "building_name": "",
      "sub_building_name": "Garvian Ltd",
      "sub_building_number": "",
      "building_number": "28",
      "line_1": "Garvian Ltd",
      "line_2": "28 Old Brompton Road",
      "line_3": "",
      "line_4": "",
      "locality": "",
      "town_or_city": "London",
      "county": "",
      "district": "Kensington And Chelsea",
      "country": "England"
    },
    {
      "formatted_address": [
        "Greenhill Global Ltd",
        "28 Old Brompton Road",
        "",
        "London",
        ""
      ],
      "thoroughfare": "Old Brompton Road",
      "building_name": "",
      "sub_building_name": "Greenhill Global Ltd",
      "sub_building_number": "",
      "building_number": "28",
      "line_1": "Greenhill Global Ltd",
      "line_2": "28 Old Brompton Road",
      "line_3": "",
      "line_4": "",
      "locality": "",
      "town_or_city": "London",
      "county": "",
      "district": "Kensington And Chelsea",
      "country": "England"
    },
    {
      "formatted_address": [
        "Haberman Products Ltd",
        "28 Old Brompton Road",
        "",
        "London",
        ""
      ],
      "thoroughfare": "Old Brompton Road",
      "building_name": "",
      "sub_building_name": "Haberman Products Ltd",
      "sub_building_number": "",
      "building_number": "28",
      "line_1": "Haberman Products Ltd",
      "line_2": "28 Old Brompton Road",
      "line_3": "",
      "line_4": "",
      "locality": "",
      "town_or_city": "London",
      "county": "",
      "district": "Kensington And Chelsea",
      "country": "England"
    },
    {
      "formatted_address": [
        "Intercontinental Stone Ltd",
        "28 Old Brompton Road",
        "",
        "London",
        ""
      ],
      "thoroughfare": "Old Brompton Road",
      "building_name": "",
      "sub_building_name": "Intercontinental Stone Ltd",
      "sub_building_number": "",
      "building_number": "28",
      "line_1": "Intercontinental Stone Ltd",
      "line_2": "28 Old Brompton Road",
      "line_3": "",
      "line_4": "",
      "locality": "",
      "town_or_city": "London",
      "county": "",
      "district": "Kensington And Chelsea",
      "country": "England"
    },
    {
      "formatted_address": [
        "Jamus Business Group Ltd",
        "28 Old Brompton Road",
        "",
        "London",
        ""
      ],
      "thoroughfare": "Old Brompton Road",
      "building_name": "",
      "sub_building_name": "Jamus Business Group Ltd",
      "sub_building_number": "",
      "building_number": "28",
      "line_1": "Jamus Business Group Ltd",
      "line_2": "28 Old Brompton Road",
      "line_3": "",
      "line_4": "",
      "locality": "",
      "town_or_city": "London",
      "county": "",
      "district": "Kensington And Chelsea",
      "country": "England"
    },
    {
      "formatted_address": [
        "Lemon Bay Consulting Ltd",
        "28 Old Brompton Road",
        "",
        "London",
        ""
      ],
      "thoroughfare": "Old Brompton Road",
      "building_name": "",
      "sub_building_name": "Lemon Bay Consulting Ltd",
      "sub_building_number": "",
      "building_number": "28",
      "line_1": "Lemon Bay Consulting Ltd",
      "line_2": "28 Old Brompton Road",
      "line_3": "",
      "line_4": "",
      "locality": "",
      "town_or_city": "London",
      "county": "",
      "district": "Kensington And Chelsea",
      "country": "England"
    },
    {
      "formatted_address": [
        "Lotterytech Ltd",
        "28 Old Brompton Road",
        "",
        "London",
        ""
      ],
      "thoroughfare": "Old Brompton Road",
      "building_name": "",
      "sub_building_name": "Lotterytech Ltd",
      "sub_building_number": "",
      "building_number": "28",
      "line_1": "Lotterytech Ltd",
      "line_2": "28 Old Brompton Road",
      "line_3": "",
      "line_4": "",
      "locality": "",
      "town_or_city": "London",
      "county": "",
      "district": "Kensington And Chelsea",
      "country": "England"
    },
    {
      "formatted_address": [
        "Mail Boxes Etc",
        "28 Old Brompton Road",
        "",
        "London",
        ""
      ],
      "thoroughfare": "Old Brompton Road",
      "building_name": "",
      "sub_building_name": "Mail Boxes Etc",
      "sub_building_number": "",
      "building_number": "28",
      "line_1": "Mail Boxes Etc",
      "line_2": "28 Old Brompton Road",
      "line_3": "",
      "line_4": "",
      "locality": "",
      "town_or_city": "London",
      "county": "",
      "district": "Kensington And Chelsea",
      "country": "England"
    },
    {
      "formatted_address": [
        "May Noradee Properties + Designs Ltd",
        "28 Old Brompton Road",
        "",
        "London",
        ""
      ],
      "thoroughfare": "Old Brompton Road",
      "building_name": "",
      "sub_building_name": "May Noradee Properties + Designs Ltd",
      "sub_building_number": "",
      "building_number": "28",
      "line_1": "May Noradee Properties + Designs Ltd",
      "line_2": "28 Old Brompton Road",
      "line_3": "",
      "line_4": "",
      "locality": "",
      "town_or_city": "London",
      "county": "",
      "district": "Kensington And Chelsea",
      "country": "England"
    },
    {
      "formatted_address": [
        "Mealz Ltd",
        "28 Old Brompton Road",
        "",
        "London",
        ""
      ],
      "thoroughfare": "Old Brompton Road",
      "building_name": "",
      "sub_building_name": "Mealz Ltd",
      "sub_building_number": "",
      "building_number": "28",
      "line_1": "Mealz Ltd",
      "line_2": "28 Old Brompton Road",
      "line_3": "",
      "line_4": "",
      "locality": "",
      "town_or_city": "London",
      "county": "",
      "district": "Kensington And Chelsea",
      "country": "England"
    },
    {
      "formatted_address": [
        "Mr. Stranos Ltd",
        "28 Old Brompton Road",
        "",
        "London",
        ""
      ],
      "thoroughfare": "Old Brompton Road",
      "building_name": "",
      "sub_building_name": "Mr. Stranos Ltd",
      "sub_building_number": "",
      "building_number": "28",
      "line_1": "Mr. Stranos Ltd",
      "line_2": "28 Old Brompton Road",
      "line_3": "",
      "line_4": "",
      "locality": "",
      "town_or_city": "London",
      "county": "",
      "district": "Kensington And Chelsea",
      "country": "England"
    },
    {
      "formatted_address": [
        "Nattawan Thai Spa Ltd",
        "28 Old Brompton Road",
        "",
        "London",
        ""
      ],
      "thoroughfare": "Old Brompton Road",
      "building_name": "",
      "sub_building_name": "Nattawan Thai Spa Ltd",
      "sub_building_number": "",
      "building_number": "28",
      "line_1": "Nattawan Thai Spa Ltd",
      "line_2": "28 Old Brompton Road",
      "line_3": "",
      "line_4": "",
      "locality": "",
      "town_or_city": "London",
      "county": "",
      "district": "Kensington And Chelsea",
      "country": "England"
    },
    {
      "formatted_address": [
        "Reflection Property Management Ltd",
        "28 Old Brompton Road",
        "",
        "London",
        ""
      ],
      "thoroughfare": "Old Brompton Road",
      "building_name": "",
      "sub_building_name": "Reflection Property Management Ltd",
      "sub_building_number": "",
      "building_number": "28",
      "line_1": "Reflection Property Management Ltd",
      "line_2": "28 Old Brompton Road",
      "line_3": "",
      "line_4": "",
      "locality": "",
      "town_or_city": "London",
      "county": "",
      "district": "Kensington And Chelsea",
      "country": "England"
    },
    {
      "formatted_address": [
        "Selu Ltd",
        "28 Old Brompton Road",
        "",
        "London",
        ""
      ],
      "thoroughfare": "Old Brompton Road",
      "building_name": "",
      "sub_building_name": "Selu Ltd",
      "sub_building_number": "",
      "building_number": "28",
      "line_1": "Selu Ltd",
      "line_2": "28 Old Brompton Road",
      "line_3": "",
      "line_4": "",
      "locality": "",
      "town_or_city": "London",
      "county": "",
      "district": "Kensington And Chelsea",
      "country": "England"
    },
    {
      "formatted_address": [
        "Slo Good Living Ltd",
        "28 Old Brompton Road",
        "",
        "London",
        ""
      ],
      "thoroughfare": "Old Brompton Road",
      "building_name": "",
      "sub_building_name": "Slo Good Living Ltd",
      "sub_building_number": "",
      "building_number": "28",
      "line_1": "Slo Good Living Ltd",
      "line_2": "28 Old Brompton Road",
      "line_3": "",
      "line_4": "",
      "locality": "",
      "town_or_city": "London",
      "county": "",
      "district": "Kensington And Chelsea",
      "country": "England"
    },
    {
      "formatted_address": [
        "Sw Residential Ltd",
        "28 Old Brompton Road",
        "",
        "London",
        ""
      ],
      "thoroughfare": "Old Brompton Road",
      "building_name": "",
      "sub_building_name": "Sw Residential Ltd",
      "sub_building_number": "",
      "building_number": "28",
      "line_1": "Sw Residential Ltd",
      "line_2": "28 Old Brompton Road",
      "line_3": "",
      "line_4": "",
      "locality": "",
      "town_or_city": "London",
      "county": "",
      "district": "Kensington And Chelsea",
      "country": "England"
    }
  ]
}