<svg xmlns="http://www.w3.org/2000/svg" width="27.564" height="21.262" viewBox="0 0 27.564 21.262">
  <path id="Icon_ionic-ios-checkmark" data-name="Icon ionic-ios-checkmark" d="M36.754,14.578l-2.163-2.224a.465.465,0,0,0-.344-.147h0a.446.446,0,0,0-.344.147l-14.99,15.1L13.457,22a.475.475,0,0,0-.688,0l-2.187,2.187a.49.49,0,0,0,0,.7l6.881,6.881a2.176,2.176,0,0,0,1.438.7,2.28,2.28,0,0,0,1.425-.676h.012L36.766,15.278A.525.525,0,0,0,36.754,14.578Z" transform="translate(-9.876 -11.706)" fill="#187932" stroke="#fff" stroke-width="1"/>
</svg>
